<svg width="153" height="22" viewBox="0 0 153 22" fill="none" xmlns="http://www.w3.org/2000/svg">
<path d="M0 8.90238V21.339H7.11727V13.8732H21.2795V10.2808H7.11727V5.75751H21.9327V0.979492H7.91745C5.81012 1.01254 3.80006 1.86109 2.31948 3.34268C0.838902 4.82427 0.00604842 6.82059 0 8.90238Z" fill="#2C2E35"/>
<path d="M70.1728 0.981445L65.2488 6.43319L60.2935 0.981445H52.0049L61.0551 11.1445L52.0049 21.3386H60.2935L65.2151 15.8059H65.2488L70.1728 21.3386H78.4253L69.4088 11.1445L78.4253 0.981445H70.1728Z" fill="#2C2E35"/>
<path d="M86.5231 0.981445H85.6313V21.341H100.444V20.5815H86.5231V0.981445Z" fill="#2C2E35"/>
<path d="M152.601 11.6493V10.9279H138.627V1.74088H152.598V0.981445H137.735V21.3338H152.598V20.5744H138.627V11.6493H152.601Z" fill="#2C2E35"/>
<path d="M130.104 19.2797L112.936 0.979492V21.3414H113.828V3.03401L130.996 21.3343L130.998 0.981873H130.107L130.104 19.2797Z" fill="#2C2E35"/>
<path d="M105.894 0.981445H105.002V21.3481H105.894V0.981445Z" fill="#2C2E35"/>
<path d="M43.2776 0.979492H32.3233C28.226 0.979492 24.8373 4.36957 24.8373 8.49529V13.7732C24.8373 17.9489 28.2115 21.339 32.3233 21.339H43.2776C47.4183 21.339 50.8022 17.9489 50.8022 13.7732V8.49767C50.8074 6.51697 50.019 4.6147 48.6092 3.20612C47.1995 1.79755 45.2828 0.997092 43.2776 0.979492ZM43.7596 16.7348H31.8774V5.5861H43.7596V16.7348Z" fill="#2C2E35"/>
</svg>
